{
  "products": [],
  "categories": [
    {
      "id": 1,
      "category": "All products"
    },
    {
      "id": 2,
      "category": "Accessories"
    },
    {
      "id": 3,
      "category": "New arrivals"
    },
    {
      "id": 4,
      "category": "Clerance"
    }
  ],
  "basket": [
    {
      "id": 2,
      "amount": "2",
      "productID": 3
    },
    {
      "amount": "1",
      "productID": "3",
      "id": 4
    }
  ],
  "users": [
    {
      "username": "arman",
      "password": "arman"
    },
    {
      "username": "admin",
      "password": "admin11"
    },
    {
      "username": "diana",
      "password": "diana"
    },
    {
      "id": 0.5936482265860661,
      "username": "diana2@gmail.com",
      "password": "diana0"
    },
    {
      "id": 0.9216660123581486,
      "username": "test",
      "password": "test"
    },
    {
      "id": 0.8145359544079049,
      "username": "test11",
      "password": "test111"
    }
  ]
}